GFORTRAN module version '10' created from acp.f90
MD5:e85159eefc8e465f8a7b69a36042f63c -- If you edit this, you'll get what you deserve.

(() () () () () () () () () () () () () () () () () () () () () () () ()
() () ())

()

()

()

()

()

(2 'acp' 'acp' '' 1 ((MODULE UNKNOWN-INTENT UNKNOWN-PROC UNKNOWN UNKNOWN
0 0) (UNKNOWN 0 0 0 0 UNKNOWN ()) 0 0 () () 0 () () () 0 0)
3 'beta' 'acp' '' 1 ((VARIABLE UNKNOWN-INTENT UNKNOWN-PROC UNKNOWN
EXPLICIT-SAVE 0 0 DIMENSION) (REAL 8 0 0 0 REAL ()) 0 0 () (3 0 EXPLICIT
(CONSTANT (INTEGER 4 0 0 0 INTEGER ()) 0 '0') (CONSTANT (INTEGER 4 0 0 0
INTEGER ()) 0 '120') (CONSTANT (INTEGER 4 0 0 0 INTEGER ()) 0 '0') (
CONSTANT (INTEGER 4 0 0 0 INTEGER ()) 0 '120') (CONSTANT (INTEGER 4 0 0
0 INTEGER ()) 0 '0') (CONSTANT (INTEGER 4 0 0 0 INTEGER ()) 0 '10')) 0 ()
() () 0 0)
4 'dfdt' 'acp' '' 1 ((PROCEDURE UNKNOWN-INTENT MODULE-PROC DECL UNKNOWN
0 0 SUBROUTINE ALWAYS_EXPLICIT) (UNKNOWN 0 0 0 0 UNKNOWN ()) 5 0 (6 7 8
9 10 11 12) () 0 () () () 0 0)
13 'ftg' 'acp' '' 1 ((PROCEDURE UNKNOWN-INTENT MODULE-PROC DECL UNKNOWN
0 0 SUBROUTINE) (UNKNOWN 0 0 0 0 UNKNOWN ()) 14 0 (15 16 17 18) () 0 ()
() () 0 0)
19 'gama' 'acp' '' 1 ((VARIABLE UNKNOWN-INTENT UNKNOWN-PROC UNKNOWN
EXPLICIT-SAVE 0 0 DIMENSION) (REAL 8 0 0 0 REAL ()) 0 0 () (3 0 EXPLICIT
(CONSTANT (INTEGER 4 0 0 0 INTEGER ()) 0 '0') (CONSTANT (INTEGER 4 0 0 0
INTEGER ()) 0 '10') (CONSTANT (INTEGER 4 0 0 0 INTEGER ()) 0 '-10') (
CONSTANT (INTEGER 4 0 0 0 INTEGER ()) 0 '10') (CONSTANT (INTEGER 4 0 0 0
INTEGER ()) 0 '-1') (CONSTANT (INTEGER 4 0 0 0 INTEGER ()) 0 '1')) 0 ()
() () 0 0)
20 'im' 'acp' '' 1 ((PROCEDURE UNKNOWN-INTENT MODULE-PROC DECL UNKNOWN 0
0 FUNCTION) (REAL 8 0 0 0 REAL ()) 21 0 (22 23 24) () 20 () () () 0 0)
25 'kind' '(intrinsic)' '' 1 ((PROCEDURE UNKNOWN-INTENT UNKNOWN-PROC
UNKNOWN UNKNOWN 0 0 FUNCTION) (INTEGER 4 0 0 0 INTEGER ()) 0 0 () () 25
() () () 0 0)
26 'lmax' 'acp' '' 1 ((PARAMETER UNKNOWN-INTENT UNKNOWN-PROC UNKNOWN
IMPLICIT-SAVE 0 0) (INTEGER 4 0 0 0 INTEGER ()) 0 0 () (CONSTANT (
INTEGER 4 0 0 0 INTEGER ()) 0 '10') () 0 () () () 0 0)
27 'lp' 'acp' '' 1 ((PARAMETER UNKNOWN-INTENT UNKNOWN-PROC UNKNOWN
IMPLICIT-SAVE 0 0) (INTEGER 4 0 0 0 INTEGER ()) 0 0 () (CONSTANT (
INTEGER 4 0 0 0 INTEGER ()) 0 '121') () 0 () () () 0 0)
28 'pvalues' 'acp' '' 1 ((PROCEDURE UNKNOWN-INTENT MODULE-PROC DECL
UNKNOWN 0 0 SUBROUTINE) (UNKNOWN 0 0 0 0 UNKNOWN ()) 29 0 (30 31 32 33
34 35 36 37 38 39) () 0 () () () 0 0)
40 're' 'acp' '' 1 ((PROCEDURE UNKNOWN-INTENT MODULE-PROC DECL UNKNOWN 0
0 FUNCTION) (REAL 8 0 0 0 REAL ()) 41 0 (42 43 44) () 40 () () () 0 0)
45 'read_3js' 'acp' '' 1 ((PROCEDURE UNKNOWN-INTENT MODULE-PROC DECL
UNKNOWN 0 0 SUBROUTINE) (UNKNOWN 0 0 0 0 UNKNOWN ()) 0 0 () () 0 () () ()
0 0)
46 'rftrg' 'acp' '' 1 ((PROCEDURE UNKNOWN-INTENT MODULE-PROC DECL
UNKNOWN 0 0 SUBROUTINE) (UNKNOWN 0 0 0 0 UNKNOWN ()) 47 0 (48 49 50 51)
() 0 () () () 0 0)
52 'sigma' 'acp' '' 1 ((VARIABLE UNKNOWN-INTENT UNKNOWN-PROC UNKNOWN
EXPLICIT-SAVE 0 0 DIMENSION) (REAL 8 0 0 0 REAL ()) 0 0 () (3 0 EXPLICIT
(CONSTANT (INTEGER 4 0 0 0 INTEGER ()) 0 '0') (CONSTANT (INTEGER 4 0 0 0
INTEGER ()) 0 '120') (CONSTANT (INTEGER 4 0 0 0 INTEGER ()) 0 '0') (
CONSTANT (INTEGER 4 0 0 0 INTEGER ()) 0 '120') (CONSTANT (INTEGER 4 0 0
0 INTEGER ()) 0 '0') (CONSTANT (INTEGER 4 0 0 0 INTEGER ()) 0 '10')) 0 ()
() () 0 0)
6 'ai' '' '' 5 ((VARIABLE UNKNOWN-INTENT UNKNOWN-PROC UNKNOWN UNKNOWN 0
0 DIMENSION DUMMY) (REAL 8 0 0 0 REAL ()) 0 0 () (1 0 ASSUMED_SHAPE (
CONSTANT (INTEGER 4 0 0 0 INTEGER ()) 0 '1') ()) 0 () () () 0 0)
7 'd1aix' '' '' 5 ((VARIABLE UNKNOWN-INTENT UNKNOWN-PROC UNKNOWN UNKNOWN
0 0 DIMENSION DUMMY) (REAL 8 0 0 0 REAL ()) 0 0 () (1 0 ASSUMED_SHAPE (
CONSTANT (INTEGER 4 0 0 0 INTEGER ()) 0 '1') ()) 0 () () () 0 0)
8 'd2aix' '' '' 5 ((VARIABLE UNKNOWN-INTENT UNKNOWN-PROC UNKNOWN UNKNOWN
0 0 DIMENSION DUMMY) (REAL 8 0 0 0 REAL ()) 0 0 () (1 0 ASSUMED_SHAPE (
CONSTANT (INTEGER 4 0 0 0 INTEGER ()) 0 '1') ()) 0 () () () 0 0)
9 'd1aiy' '' '' 5 ((VARIABLE UNKNOWN-INTENT UNKNOWN-PROC UNKNOWN UNKNOWN
0 0 DIMENSION DUMMY) (REAL 8 0 0 0 REAL ()) 0 0 () (1 0 ASSUMED_SHAPE (
CONSTANT (INTEGER 4 0 0 0 INTEGER ()) 0 '1') ()) 0 () () () 0 0)
10 'd2aiy' '' '' 5 ((VARIABLE UNKNOWN-INTENT UNKNOWN-PROC UNKNOWN
UNKNOWN 0 0 DIMENSION DUMMY) (REAL 8 0 0 0 REAL ()) 0 0 () (1 0
ASSUMED_SHAPE (CONSTANT (INTEGER 4 0 0 0 INTEGER ()) 0 '1') ()) 0 () ()
() 0 0)
11 'dv' '' '' 5 ((VARIABLE UNKNOWN-INTENT UNKNOWN-PROC UNKNOWN UNKNOWN 0
0 DIMENSION DUMMY) (REAL 8 0 0 0 REAL ()) 0 0 () (2 0 EXPLICIT (
CONSTANT (INTEGER 4 0 0 0 INTEGER ()) 0 '1') (CONSTANT (INTEGER 4 0 0 0
INTEGER ()) 0 '3') (CONSTANT (INTEGER 4 0 0 0 INTEGER ()) 0 '1') (
CONSTANT (INTEGER 4 0 0 0 INTEGER ()) 0 '3')) 0 () () () 0 0)
12 'fv' '' '' 5 ((VARIABLE UNKNOWN-INTENT UNKNOWN-PROC UNKNOWN UNKNOWN 0
0 DIMENSION DUMMY) (REAL 8 0 0 0 REAL ()) 0 0 () (1 0 ASSUMED_SHAPE (
CONSTANT (INTEGER 4 0 0 0 INTEGER ()) 0 '1') ()) 0 () () () 0 0)
15 'jm' '' '' 14 ((VARIABLE UNKNOWN-INTENT UNKNOWN-PROC UNKNOWN UNKNOWN
0 0 DUMMY) (INTEGER 4 0 0 0 INTEGER ()) 0 0 () () 0 () () () 0 0)
16 'c' '' '' 14 ((VARIABLE UNKNOWN-INTENT UNKNOWN-PROC UNKNOWN UNKNOWN 0
0 DIMENSION DUMMY) (REAL 8 0 0 0 REAL ()) 0 0 () (2 0 EXPLICIT (
CONSTANT (INTEGER 4 0 0 0 INTEGER ()) 0 '0') (CONSTANT (INTEGER 4 0 0 0
INTEGER ()) 0 '10') (CONSTANT (INTEGER 4 0 0 0 INTEGER ()) 0 '-10') (
CONSTANT (INTEGER 4 0 0 0 INTEGER ()) 0 '10')) 0 () () () 0 0)
17 'b' '' '' 14 ((VARIABLE UNKNOWN-INTENT UNKNOWN-PROC UNKNOWN UNKNOWN 0
0 DIMENSION DUMMY) (REAL 8 0 0 0 REAL ()) 0 0 () (2 0 EXPLICIT (
CONSTANT (INTEGER 4 0 0 0 INTEGER ()) 0 '0') (CONSTANT (INTEGER 4 0 0 0
INTEGER ()) 0 '10') (CONSTANT (INTEGER 4 0 0 0 INTEGER ()) 0 '-10') (
CONSTANT (INTEGER 4 0 0 0 INTEGER ()) 0 '10')) 0 () () () 0 0)
18 'd' '' '' 14 ((VARIABLE UNKNOWN-INTENT UNKNOWN-PROC UNKNOWN UNKNOWN 0
0 DIMENSION DUMMY) (REAL 8 0 0 0 REAL ()) 0 0 () (2 0 EXPLICIT (
CONSTANT (INTEGER 4 0 0 0 INTEGER ()) 0 '0') (CONSTANT (INTEGER 4 0 0 0
INTEGER ()) 0 '10') (CONSTANT (INTEGER 4 0 0 0 INTEGER ()) 0 '-10') (
CONSTANT (INTEGER 4 0 0 0 INTEGER ()) 0 '10')) 0 () () () 0 0)
22 'a' '' '' 21 ((VARIABLE UNKNOWN-INTENT UNKNOWN-PROC UNKNOWN UNKNOWN 0
0 DIMENSION DUMMY) (REAL 8 0 0 0 REAL ()) 0 0 () (2 0 EXPLICIT (
CONSTANT (INTEGER 4 0 0 0 INTEGER ()) 0 '0') (CONSTANT (INTEGER 4 0 0 0
INTEGER ()) 0 '10') (CONSTANT (INTEGER 4 0 0 0 INTEGER ()) 0 '-10') (
CONSTANT (INTEGER 4 0 0 0 INTEGER ()) 0 '10')) 0 () () () 0 0)
23 'l' '' '' 21 ((VARIABLE UNKNOWN-INTENT UNKNOWN-PROC UNKNOWN UNKNOWN 0
0 DUMMY) (INTEGER 4 0 0 0 INTEGER ()) 0 0 () () 0 () () () 0 0)
24 'm' '' '' 21 ((VARIABLE UNKNOWN-INTENT UNKNOWN-PROC UNKNOWN UNKNOWN 0
0 DUMMY) (INTEGER 4 0 0 0 INTEGER ()) 0 0 () () 0 () () () 0 0)
30 'ppn1' '' '' 29 ((VARIABLE UNKNOWN-INTENT UNKNOWN-PROC UNKNOWN
UNKNOWN 0 0 DUMMY) (REAL 8 0 0 0 REAL ()) 0 0 () () 0 () () () 0 0)
31 'ppal' '' '' 29 ((VARIABLE UNKNOWN-INTENT UNKNOWN-PROC UNKNOWN
UNKNOWN 0 0 DUMMY) (REAL 8 0 0 0 REAL ()) 0 0 () () 0 () () () 0 0)
32 'ppn2' '' '' 29 ((VARIABLE UNKNOWN-INTENT UNKNOWN-PROC UNKNOWN
UNKNOWN 0 0 DUMMY) (REAL 8 0 0 0 REAL ()) 0 0 () () 0 () () () 0 0)
33 'ppu0' '' '' 29 ((VARIABLE UNKNOWN-INTENT UNKNOWN-PROC UNKNOWN
UNKNOWN 0 0 DUMMY) (REAL 8 0 0 0 REAL ()) 0 0 () () 0 () () () 0 0)
34 'ppds' '' '' 29 ((VARIABLE UNKNOWN-INTENT UNKNOWN-PROC UNKNOWN
UNKNOWN 0 0 DUMMY) (REAL 8 0 0 0 REAL ()) 0 0 () () 0 () () () 0 0)
35 'ppde' '' '' 29 ((VARIABLE UNKNOWN-INTENT UNKNOWN-PROC UNKNOWN
UNKNOWN 0 0 DUMMY) (REAL 8 0 0 0 REAL ()) 0 0 () () 0 () () () 0 0)
36 'ppa' '' '' 29 ((VARIABLE UNKNOWN-INTENT UNKNOWN-PROC UNKNOWN UNKNOWN
0 0 DUMMY) (REAL 8 0 0 0 REAL ()) 0 0 () () 0 () () () 0 0)
37 'co2' '' '' 29 ((VARIABLE UNKNOWN-INTENT UNKNOWN-PROC UNKNOWN UNKNOWN
0 0 DUMMY) (REAL 8 0 0 0 REAL ()) 0 0 () () 0 () () () 0 0)
38 'ct2' '' '' 29 ((VARIABLE UNKNOWN-INTENT UNKNOWN-PROC UNKNOWN UNKNOWN
0 0 DUMMY) (REAL 8 0 0 0 REAL ()) 0 0 () () 0 () () () 0 0)
39 'pf' '' '' 29 ((VARIABLE UNKNOWN-INTENT UNKNOWN-PROC UNKNOWN UNKNOWN
0 0 DUMMY) (REAL 8 0 0 0 REAL ()) 0 0 () () 0 () () () 0 0)
42 'a' '' '' 41 ((VARIABLE UNKNOWN-INTENT UNKNOWN-PROC UNKNOWN UNKNOWN 0
0 DIMENSION DUMMY) (REAL 8 0 0 0 REAL ()) 0 0 () (2 0 EXPLICIT (
CONSTANT (INTEGER 4 0 0 0 INTEGER ()) 0 '0') (CONSTANT (INTEGER 4 0 0 0
INTEGER ()) 0 '10') (CONSTANT (INTEGER 4 0 0 0 INTEGER ()) 0 '-10') (
CONSTANT (INTEGER 4 0 0 0 INTEGER ()) 0 '10')) 0 () () () 0 0)
43 'l' '' '' 41 ((VARIABLE UNKNOWN-INTENT UNKNOWN-PROC UNKNOWN UNKNOWN 0
0 DUMMY) (INTEGER 4 0 0 0 INTEGER ()) 0 0 () () 0 () () () 0 0)
44 'm' '' '' 41 ((VARIABLE UNKNOWN-INTENT UNKNOWN-PROC UNKNOWN UNKNOWN 0
0 DUMMY) (INTEGER 4 0 0 0 INTEGER ()) 0 0 () () 0 () () () 0 0)
48 'jm' '' '' 47 ((VARIABLE UNKNOWN-INTENT UNKNOWN-PROC UNKNOWN UNKNOWN
0 0 DUMMY) (INTEGER 4 0 0 0 INTEGER ()) 0 0 () () 0 () () () 0 0)
49 'a' '' '' 47 ((VARIABLE UNKNOWN-INTENT UNKNOWN-PROC UNKNOWN UNKNOWN 0
0 DIMENSION DUMMY) (REAL 8 0 0 0 REAL ()) 0 0 () (2 0 EXPLICIT (
CONSTANT (INTEGER 4 0 0 0 INTEGER ()) 0 '0') (CONSTANT (INTEGER 4 0 0 0
INTEGER ()) 0 '10') (CONSTANT (INTEGER 4 0 0 0 INTEGER ()) 0 '-10') (
CONSTANT (INTEGER 4 0 0 0 INTEGER ()) 0 '10')) 0 () () () 0 0)
50 'd' '' '' 47 ((VARIABLE UNKNOWN-INTENT UNKNOWN-PROC UNKNOWN UNKNOWN 0
0 DIMENSION DUMMY) (REAL 8 0 0 0 REAL ()) 0 0 () (2 0 EXPLICIT (
CONSTANT (INTEGER 4 0 0 0 INTEGER ()) 0 '0') (CONSTANT (INTEGER 4 0 0 0
INTEGER ()) 0 '10') (CONSTANT (INTEGER 4 0 0 0 INTEGER ()) 0 '-10') (
CONSTANT (INTEGER 4 0 0 0 INTEGER ()) 0 '10')) 0 () () () 0 0)
51 'c' '' '' 47 ((VARIABLE UNKNOWN-INTENT UNKNOWN-PROC UNKNOWN UNKNOWN 0
0 DIMENSION DUMMY) (REAL 8 0 0 0 REAL ()) 0 0 () (2 0 EXPLICIT (
CONSTANT (INTEGER 4 0 0 0 INTEGER ()) 0 '0') (CONSTANT (INTEGER 4 0 0 0
INTEGER ()) 0 '10') (CONSTANT (INTEGER 4 0 0 0 INTEGER ()) 0 '-10') (
CONSTANT (INTEGER 4 0 0 0 INTEGER ()) 0 '10')) 0 () () () 0 0)
)

('acp' 0 2 'beta' 0 3 'dfdt' 0 4 'ftg' 0 13 'gama' 0 19 'im' 0 20 'kind'
0 25 'lmax' 0 26 'lp' 0 27 'pvalues' 0 28 're' 0 40 'read_3js' 0 45
'rftrg' 0 46 'sigma' 0 52)
