GFORTRAN module version '10' created from sf.f90
MD5:22a96e7cf10a5711a5a8964dead2d275 -- If you edit this, you'll get what you deserve.

(() () () () () () () () () () () () () () () () () () () () () () ()
() () () ())

()

()

()

()

()

(2 '__convert_i4_r8' '(intrinsic)' '' 1 ((PROCEDURE UNKNOWN-INTENT
UNKNOWN-PROC UNKNOWN UNKNOWN 0 0 FUNCTION ELEMENTAL PURE) (REAL 8 0 0 0
REAL ()) 0 0 () () 2 () () () 0 0)
3 'acp' 'acp' '' 1 ((MODULE UNKNOWN-INTENT UNKNOWN-PROC UNKNOWN UNKNOWN
0 0) (UNKNOWN 0 0 0 0 UNKNOWN ()) 0 0 () () 0 () () () 0 0)
4 'beta' 'acp' '' 1 ((VARIABLE UNKNOWN-INTENT UNKNOWN-PROC UNKNOWN
EXPLICIT-SAVE 0 0 DIMENSION) (REAL 8 0 0 0 REAL ()) 0 0 () (3 0 EXPLICIT
(CONSTANT (INTEGER 4 0 0 0 INTEGER ()) 0 '0') (CONSTANT (INTEGER 4 0 0 0
INTEGER ()) 0 '120') (CONSTANT (INTEGER 4 0 0 0 INTEGER ()) 0 '0') (
CONSTANT (INTEGER 4 0 0 0 INTEGER ()) 0 '120') (CONSTANT (INTEGER 4 0 0
0 INTEGER ()) 0 '0') (CONSTANT (INTEGER 4 0 0 0 INTEGER ()) 0 '10')) 0 ()
() () 0 0)
5 'd1x' 'lcp_2d' '' 1 ((VARIABLE UNKNOWN-INTENT UNKNOWN-PROC UNKNOWN
IMPLICIT-SAVE 0 0 DIMENSION) (REAL 8 0 0 0 REAL ()) 0 0 () (2 0 EXPLICIT
(CONSTANT (INTEGER 4 0 0 0 INTEGER ()) 0 '1') (CONSTANT (INTEGER 4 0 0 0
INTEGER ()) 0 '64') (CONSTANT (INTEGER 4 0 0 0 INTEGER ()) 0 '1') (
CONSTANT (INTEGER 4 0 0 0 INTEGER ()) 0 '121')) 0 () () () 0 0)
6 'd1y' 'lcp_2d' '' 1 ((VARIABLE UNKNOWN-INTENT UNKNOWN-PROC UNKNOWN
IMPLICIT-SAVE 0 0 DIMENSION) (REAL 8 0 0 0 REAL ()) 0 0 () (2 0 EXPLICIT
(CONSTANT (INTEGER 4 0 0 0 INTEGER ()) 0 '1') (CONSTANT (INTEGER 4 0 0 0
INTEGER ()) 0 '64') (CONSTANT (INTEGER 4 0 0 0 INTEGER ()) 0 '1') (
CONSTANT (INTEGER 4 0 0 0 INTEGER ()) 0 '121')) 0 () () () 0 0)
7 'd2u' 'lcp_2d' '' 1 ((VARIABLE UNKNOWN-INTENT UNKNOWN-PROC UNKNOWN
IMPLICIT-SAVE 0 0 DIMENSION) (REAL 8 0 0 0 REAL ()) 0 0 () (2 0 EXPLICIT
(CONSTANT (INTEGER 4 0 0 0 INTEGER ()) 0 '1') (CONSTANT (INTEGER 4 0 0 0
INTEGER ()) 0 '64') (CONSTANT (INTEGER 4 0 0 0 INTEGER ()) 0 '1') (
CONSTANT (INTEGER 4 0 0 0 INTEGER ()) 0 '121')) 0 () () () 0 0)
8 'd2x' 'lcp_2d' '' 1 ((VARIABLE UNKNOWN-INTENT UNKNOWN-PROC UNKNOWN
IMPLICIT-SAVE 0 0 DIMENSION) (REAL 8 0 0 0 REAL ()) 0 0 () (2 0 EXPLICIT
(CONSTANT (INTEGER 4 0 0 0 INTEGER ()) 0 '1') (CONSTANT (INTEGER 4 0 0 0
INTEGER ()) 0 '64') (CONSTANT (INTEGER 4 0 0 0 INTEGER ()) 0 '1') (
CONSTANT (INTEGER 4 0 0 0 INTEGER ()) 0 '121')) 0 () () () 0 0)
9 'd2y' 'lcp_2d' '' 1 ((VARIABLE UNKNOWN-INTENT UNKNOWN-PROC UNKNOWN
IMPLICIT-SAVE 0 0 DIMENSION) (REAL 8 0 0 0 REAL ()) 0 0 () (2 0 EXPLICIT
(CONSTANT (INTEGER 4 0 0 0 INTEGER ()) 0 '1') (CONSTANT (INTEGER 4 0 0 0
INTEGER ()) 0 '64') (CONSTANT (INTEGER 4 0 0 0 INTEGER ()) 0 '1') (
CONSTANT (INTEGER 4 0 0 0 INTEGER ()) 0 '121')) 0 () () () 0 0)
10 'dagp' 'lcp_2d' '' 1 ((VARIABLE UNKNOWN-INTENT UNKNOWN-PROC UNKNOWN
IMPLICIT-SAVE 0 0 DIMENSION) (REAL 8 0 0 0 REAL ()) 0 0 () (2 0 EXPLICIT
(CONSTANT (INTEGER 4 0 0 0 INTEGER ()) 0 '1') (CONSTANT (INTEGER 4 0 0 0
INTEGER ()) 0 '64') (CONSTANT (INTEGER 4 0 0 0 INTEGER ()) 0 '1') (
CONSTANT (INTEGER 4 0 0 0 INTEGER ()) 0 '121')) 0 () () () 0 0)
11 'dble' '(intrinsic)' '' 1 ((PROCEDURE UNKNOWN-INTENT UNKNOWN-PROC
UNKNOWN UNKNOWN 0 0 FUNCTION) (REAL 4 0 0 0 REAL ()) 0 0 () () 11 () ()
() 0 0)
12 'dfdt' 'acp' '' 1 ((PROCEDURE UNKNOWN-INTENT MODULE-PROC DECL UNKNOWN
0 0 SUBROUTINE ALWAYS_EXPLICIT) (UNKNOWN 0 0 0 0 UNKNOWN ()) 13 0 (14 15
16 17 18 19 20) () 0 () () () 0 0)
21 'dtaum' 'lcp_2d' '' 1 ((PROCEDURE UNKNOWN-INTENT MODULE-PROC DECL
UNKNOWN 0 0 SUBROUTINE ALWAYS_EXPLICIT) (UNKNOWN 0 0 0 0 UNKNOWN ()) 22
0 (23 24 25) () 0 () () () 0 0)
26 'dvds' 'lcp_2d' '' 1 ((VARIABLE UNKNOWN-INTENT UNKNOWN-PROC UNKNOWN
EXPLICIT-SAVE 0 0 DIMENSION) (REAL 8 0 0 0 REAL ()) 0 0 () (3 0 EXPLICIT
(CONSTANT (INTEGER 4 0 0 0 INTEGER ()) 0 '1') (CONSTANT (INTEGER 4 0 0 0
INTEGER ()) 0 '64') (CONSTANT (INTEGER 4 0 0 0 INTEGER ()) 0 '1') (
CONSTANT (INTEGER 4 0 0 0 INTEGER ()) 0 '3') (CONSTANT (INTEGER 4 0 0 0
INTEGER ()) 0 '1') (CONSTANT (INTEGER 4 0 0 0 INTEGER ()) 0 '3')) 0 () ()
() 0 0)
27 'er' 'lcp_2d' '' 1 ((VARIABLE UNKNOWN-INTENT UNKNOWN-PROC UNKNOWN
EXPLICIT-SAVE 0 0) (REAL 4 0 0 0 REAL ()) 0 0 () () 0 () () () 0 0)
28 'f_para' 'lcp_2d' '' 1 ((VARIABLE UNKNOWN-INTENT UNKNOWN-PROC UNKNOWN
IMPLICIT-SAVE 0 0) (INTEGER 4 0 0 0 INTEGER ()) 0 0 () () 0 () () () 0 0)
29 'ftg' 'acp' '' 1 ((PROCEDURE UNKNOWN-INTENT MODULE-PROC DECL UNKNOWN
0 0 SUBROUTINE) (UNKNOWN 0 0 0 0 UNKNOWN ()) 30 0 (31 32 33 34) () 0 ()
() () 0 0)
35 'fu3' 'lcp_2d' '' 1 ((VARIABLE UNKNOWN-INTENT UNKNOWN-PROC UNKNOWN
IMPLICIT-SAVE 0 0 DIMENSION) (REAL 8 0 0 0 REAL ()) 0 0 () (2 0 EXPLICIT
(CONSTANT (INTEGER 4 0 0 0 INTEGER ()) 0 '1') (CONSTANT (INTEGER 4 0 0 0
INTEGER ()) 0 '64') (CONSTANT (INTEGER 4 0 0 0 INTEGER ()) 0 '1') (
CONSTANT (INTEGER 4 0 0 0 INTEGER ()) 0 '121')) 0 () () () 0 0)
36 'fv3a' 'lcp_2d' '' 1 ((VARIABLE UNKNOWN-INTENT UNKNOWN-PROC UNKNOWN
IMPLICIT-SAVE 0 0 DIMENSION) (REAL 8 0 0 0 REAL ()) 0 0 () (2 0 EXPLICIT
(CONSTANT (INTEGER 4 0 0 0 INTEGER ()) 0 '1') (CONSTANT (INTEGER 4 0 0 0
INTEGER ()) 0 '64') (CONSTANT (INTEGER 4 0 0 0 INTEGER ()) 0 '1') (
CONSTANT (INTEGER 4 0 0 0 INTEGER ()) 0 '3')) 0 () () () 0 0)
37 'fv_11' 'lcp_2d' '' 1 ((PROCEDURE UNKNOWN-INTENT MODULE-PROC DECL
UNKNOWN 0 0 SUBROUTINE IMPLICIT_PURE ALWAYS_EXPLICIT) (UNKNOWN 0 0 0 0
UNKNOWN ()) 38 0 (39 40 41 42) () 0 () () () 0 0)
43 'fva' 'lcp_2d' '' 1 ((VARIABLE UNKNOWN-INTENT UNKNOWN-PROC UNKNOWN
IMPLICIT-SAVE 0 0 DIMENSION) (REAL 8 0 0 0 REAL ()) 0 0 () (2 0 EXPLICIT
(CONSTANT (INTEGER 4 0 0 0 INTEGER ()) 0 '1') (CONSTANT (INTEGER 4 0 0 0
INTEGER ()) 0 '64') (CONSTANT (INTEGER 4 0 0 0 INTEGER ()) 0 '1') (
CONSTANT (INTEGER 4 0 0 0 INTEGER ()) 0 '3')) 0 () () () 0 0)
44 'fvalue_1' 'lcp_2d' '' 1 ((PROCEDURE UNKNOWN-INTENT MODULE-PROC DECL
UNKNOWN 0 0 SUBROUTINE ALWAYS_EXPLICIT) (UNKNOWN 0 0 0 0 UNKNOWN ()) 45
0 (46 47 48) () 0 () () () 0 0)
49 'gama' 'acp' '' 1 ((VARIABLE UNKNOWN-INTENT UNKNOWN-PROC UNKNOWN
EXPLICIT-SAVE 0 0 DIMENSION) (REAL 8 0 0 0 REAL ()) 0 0 () (3 0 EXPLICIT
(CONSTANT (INTEGER 4 0 0 0 INTEGER ()) 0 '0') (CONSTANT (INTEGER 4 0 0 0
INTEGER ()) 0 '10') (CONSTANT (INTEGER 4 0 0 0 INTEGER ()) 0 '-10') (
CONSTANT (INTEGER 4 0 0 0 INTEGER ()) 0 '10') (CONSTANT (INTEGER 4 0 0 0
INTEGER ()) 0 '-1') (CONSTANT (INTEGER 4 0 0 0 INTEGER ()) 0 '1')) 0 ()
() () 0 0)
50 'hy' 'lcp_2d' '' 1 ((PARAMETER UNKNOWN-INTENT UNKNOWN-PROC UNKNOWN
IMPLICIT-SAVE 0 0) (REAL 8 0 0 0 REAL ()) 0 0 () (CONSTANT (REAL 8 0 0 0
REAL ()) 0 '0.40000000000000@-1') () 0 () () () 0 0)
51 'im' 'acp' '' 1 ((PROCEDURE UNKNOWN-INTENT MODULE-PROC DECL UNKNOWN 0
0 FUNCTION) (REAL 8 0 0 0 REAL ()) 52 0 (53 54 55) () 51 () () () 0 0)
56 'kind' '(intrinsic)' '' 1 ((PROCEDURE UNKNOWN-INTENT UNKNOWN-PROC
UNKNOWN UNKNOWN 0 0 FUNCTION) (INTEGER 4 0 0 0 INTEGER ()) 0 0 () () 56
() () () 0 0)
57 'lcp_2d' 'lcp_2d' '' 1 ((MODULE UNKNOWN-INTENT UNKNOWN-PROC UNKNOWN
UNKNOWN 0 0) (UNKNOWN 0 0 0 0 UNKNOWN ()) 0 0 () () 0 () () () 0 0)
58 'lmax' 'acp' '' 1 ((PARAMETER UNKNOWN-INTENT UNKNOWN-PROC UNKNOWN
IMPLICIT-SAVE 0 0) (INTEGER 4 0 0 0 INTEGER ()) 0 0 () (CONSTANT (
INTEGER 4 0 0 0 INTEGER ()) 0 '10') () 0 () () () 0 0)
59 'lp' 'acp' '' 1 ((PARAMETER UNKNOWN-INTENT UNKNOWN-PROC UNKNOWN
IMPLICIT-SAVE 0 0) (INTEGER 4 0 0 0 INTEGER ()) 0 0 () (CONSTANT (
INTEGER 4 0 0 0 INTEGER ()) 0 '121') () 0 () () () 0 0)
60 'moments' 'lcp_2d' '' 1 ((PROCEDURE UNKNOWN-INTENT MODULE-PROC DECL
UNKNOWN 0 0 SUBROUTINE ALWAYS_EXPLICIT) (UNKNOWN 0 0 0 0 UNKNOWN ()) 61
0 (62) () 0 () () () 0 0)
63 'n' 'lcp_2d' '' 1 ((PARAMETER UNKNOWN-INTENT UNKNOWN-PROC UNKNOWN
IMPLICIT-SAVE 0 0) (INTEGER 4 0 0 0 INTEGER ()) 0 0 () (CONSTANT (
INTEGER 4 0 0 0 INTEGER ()) 0 '7744') () 0 () () () 0 0)
64 'n3' 'lcp_2d' '' 1 ((PARAMETER UNKNOWN-INTENT UNKNOWN-PROC UNKNOWN
IMPLICIT-SAVE 0 0) (INTEGER 4 0 0 0 INTEGER ()) 0 0 () (CONSTANT (
INTEGER 4 0 0 0 INTEGER ()) 0 '7744') () 0 () () () 0 0)
65 'nv' 'lcp_2d' '' 1 ((PARAMETER UNKNOWN-INTENT UNKNOWN-PROC UNKNOWN
IMPLICIT-SAVE 0 0) (INTEGER 4 0 0 0 INTEGER ()) 0 0 () (CONSTANT (
INTEGER 4 0 0 0 INTEGER ()) 0 '121') () 0 () () () 0 0)
66 'ny' 'lcp_2d' '' 1 ((PARAMETER UNKNOWN-INTENT UNKNOWN-PROC UNKNOWN
IMPLICIT-SAVE 0 0) (INTEGER 4 0 0 0 INTEGER ()) 0 0 () (CONSTANT (
INTEGER 4 0 0 0 INTEGER ()) 0 '64') () 0 () () () 0 0)
67 'pd' 'lcp_2d' '' 1 ((VARIABLE UNKNOWN-INTENT UNKNOWN-PROC UNKNOWN
EXPLICIT-SAVE 0 0) (REAL 4 0 0 0 REAL ()) 0 0 () () 0 () () () 0 0)
68 'pvalues' 'acp' '' 1 ((PROCEDURE UNKNOWN-INTENT MODULE-PROC DECL
UNKNOWN 0 0 SUBROUTINE) (UNKNOWN 0 0 0 0 UNKNOWN ()) 69 0 (70 71 72 73
74 75 76 77 78 79) () 0 () () () 0 0)
80 're' 'acp' '' 1 ((PROCEDURE UNKNOWN-INTENT MODULE-PROC DECL UNKNOWN 0
0 FUNCTION) (REAL 8 0 0 0 REAL ()) 81 0 (82 83 84) () 80 () () () 0 0)
85 'read_3js' 'acp' '' 1 ((PROCEDURE UNKNOWN-INTENT MODULE-PROC DECL
UNKNOWN 0 0 SUBROUTINE) (UNKNOWN 0 0 0 0 UNKNOWN ()) 0 0 () () 0 () () ()
0 0)
86 'reshape' '(intrinsic)' '' 1 ((PROCEDURE UNKNOWN-INTENT UNKNOWN-PROC
UNKNOWN UNKNOWN 0 0 FUNCTION) (REAL 4 0 0 0 REAL ()) 0 0 () () 86 () ()
() 0 0)
87 'rftrg' 'acp' '' 1 ((PROCEDURE UNKNOWN-INTENT MODULE-PROC DECL
UNKNOWN 0 0 SUBROUTINE) (UNKNOWN 0 0 0 0 UNKNOWN ()) 88 0 (89 90 91 92)
() 0 () () () 0 0)
93 'setanpe' 'lcp_2d' '' 1 ((PROCEDURE UNKNOWN-INTENT MODULE-PROC DECL
UNKNOWN 0 0 SUBROUTINE) (UNKNOWN 0 0 0 0 UNKNOWN ()) 94 0 (95 96 97 98
99 100 101 102 103 104) () 0 () () () 0 0)
105 'sigma' 'acp' '' 1 ((VARIABLE UNKNOWN-INTENT UNKNOWN-PROC UNKNOWN
EXPLICIT-SAVE 0 0 DIMENSION) (REAL 8 0 0 0 REAL ()) 0 0 () (3 0 EXPLICIT
(CONSTANT (INTEGER 4 0 0 0 INTEGER ()) 0 '0') (CONSTANT (INTEGER 4 0 0 0
INTEGER ()) 0 '120') (CONSTANT (INTEGER 4 0 0 0 INTEGER ()) 0 '0') (
CONSTANT (INTEGER 4 0 0 0 INTEGER ()) 0 '120') (CONSTANT (INTEGER 4 0 0
0 INTEGER ()) 0 '0') (CONSTANT (INTEGER 4 0 0 0 INTEGER ()) 0 '10')) 0 ()
() () 0 0)
106 'single_taum' 'lcp_2d' '' 1 ((PROCEDURE UNKNOWN-INTENT MODULE-PROC
DECL UNKNOWN 0 0 SUBROUTINE ALWAYS_EXPLICIT) (UNKNOWN 0 0 0 0 UNKNOWN ())
107 0 (108 109 110 111 112 113) () 0 () () () 0 0)
114 'single_tauv' 'lcp_2d' '' 1 ((PROCEDURE UNKNOWN-INTENT MODULE-PROC
DECL UNKNOWN 0 0 SUBROUTINE ALWAYS_EXPLICIT) (UNKNOWN 0 0 0 0 UNKNOWN ())
115 0 (116 117) () 0 () () () 0 0)
118 'smoluchowski' 'lcp_2d' '' 1 ((PROCEDURE UNKNOWN-INTENT MODULE-PROC
DECL UNKNOWN 0 0 SUBROUTINE ALWAYS_EXPLICIT) (UNKNOWN 0 0 0 0 UNKNOWN ())
119 0 (120 121 122) () 0 () () () 0 0)
123 'taum_value' 'lcp_2d' '' 1 ((PROCEDURE UNKNOWN-INTENT MODULE-PROC
DECL UNKNOWN 0 0 SUBROUTINE ALWAYS_EXPLICIT) (UNKNOWN 0 0 0 0 UNKNOWN ())
124 0 (125 126 127) () 0 () () () 0 0)
128 'u3' 'lcp_2d' '' 1 ((VARIABLE UNKNOWN-INTENT UNKNOWN-PROC UNKNOWN
IMPLICIT-SAVE 0 0 DIMENSION) (REAL 8 0 0 0 REAL ()) 0 0 () (2 0 EXPLICIT
(CONSTANT (INTEGER 4 0 0 0 INTEGER ()) 0 '1') (CONSTANT (INTEGER 4 0 0 0
INTEGER ()) 0 '64') (CONSTANT (INTEGER 4 0 0 0 INTEGER ()) 0 '1') (
CONSTANT (INTEGER 4 0 0 0 INTEGER ()) 0 '121')) 0 () () () 0 0)
129 'ubv' 'lcp_2d' '' 1 ((VARIABLE UNKNOWN-INTENT UNKNOWN-PROC UNKNOWN
IMPLICIT-SAVE 0 0 DIMENSION) (REAL 8 0 0 0 REAL ()) 0 0 () (1 0 EXPLICIT
(CONSTANT (INTEGER 4 0 0 0 INTEGER ()) 0 '1') (CONSTANT (INTEGER 4 0 0 0
INTEGER ()) 0 '121')) 0 () () () 0 0)
130 'v3' 'lcp_2d' '' 1 ((VARIABLE UNKNOWN-INTENT UNKNOWN-PROC UNKNOWN
IMPLICIT-SAVE 0 0 DIMENSION) (REAL 8 0 0 0 REAL ()) 0 0 () (2 0 EXPLICIT
(CONSTANT (INTEGER 4 0 0 0 INTEGER ()) 0 '1') (CONSTANT (INTEGER 4 0 0 0
INTEGER ()) 0 '64') (CONSTANT (INTEGER 4 0 0 0 INTEGER ()) 0 '1') (
CONSTANT (INTEGER 4 0 0 0 INTEGER ()) 0 '3')) 0 () () () 0 0)
131 'ys' 'lcp_2d' '' 1 ((VARIABLE UNKNOWN-INTENT UNKNOWN-PROC UNKNOWN
IMPLICIT-SAVE 0 0 DIMENSION) (REAL 8 0 0 0 REAL ()) 0 0 () (1 0 EXPLICIT
(CONSTANT (INTEGER 4 0 0 0 INTEGER ()) 0 '0') (CONSTANT (INTEGER 4 0 0 0
INTEGER ()) 0 '64')) 0 () () () 0 0)
14 'ai' '' '' 13 ((VARIABLE UNKNOWN-INTENT UNKNOWN-PROC UNKNOWN UNKNOWN
0 0 DIMENSION DUMMY) (REAL 8 0 0 0 REAL ()) 0 0 () (1 0 ASSUMED_SHAPE (
CONSTANT (INTEGER 4 0 0 0 INTEGER ()) 0 '1') ()) 0 () () () 0 0)
15 'd1aix' '' '' 13 ((VARIABLE UNKNOWN-INTENT UNKNOWN-PROC UNKNOWN
UNKNOWN 0 0 DIMENSION DUMMY) (REAL 8 0 0 0 REAL ()) 0 0 () (1 0
ASSUMED_SHAPE (CONSTANT (INTEGER 4 0 0 0 INTEGER ()) 0 '1') ()) 0 () ()
() 0 0)
16 'd2aix' '' '' 13 ((VARIABLE UNKNOWN-INTENT UNKNOWN-PROC UNKNOWN
UNKNOWN 0 0 DIMENSION DUMMY) (REAL 8 0 0 0 REAL ()) 0 0 () (1 0
ASSUMED_SHAPE (CONSTANT (INTEGER 4 0 0 0 INTEGER ()) 0 '1') ()) 0 () ()
() 0 0)
17 'd1aiy' '' '' 13 ((VARIABLE UNKNOWN-INTENT UNKNOWN-PROC UNKNOWN
UNKNOWN 0 0 DIMENSION DUMMY) (REAL 8 0 0 0 REAL ()) 0 0 () (1 0
ASSUMED_SHAPE (CONSTANT (INTEGER 4 0 0 0 INTEGER ()) 0 '1') ()) 0 () ()
() 0 0)
18 'd2aiy' '' '' 13 ((VARIABLE UNKNOWN-INTENT UNKNOWN-PROC UNKNOWN
UNKNOWN 0 0 DIMENSION DUMMY) (REAL 8 0 0 0 REAL ()) 0 0 () (1 0
ASSUMED_SHAPE (CONSTANT (INTEGER 4 0 0 0 INTEGER ()) 0 '1') ()) 0 () ()
() 0 0)
19 'dv' '' '' 13 ((VARIABLE UNKNOWN-INTENT UNKNOWN-PROC UNKNOWN UNKNOWN
0 0 DIMENSION DUMMY) (REAL 8 0 0 0 REAL ()) 0 0 () (2 0 EXPLICIT (
CONSTANT (INTEGER 4 0 0 0 INTEGER ()) 0 '1') (CONSTANT (INTEGER 4 0 0 0
INTEGER ()) 0 '3') (CONSTANT (INTEGER 4 0 0 0 INTEGER ()) 0 '1') (
CONSTANT (INTEGER 4 0 0 0 INTEGER ()) 0 '3')) 0 () () () 0 0)
20 'fv' '' '' 13 ((VARIABLE UNKNOWN-INTENT UNKNOWN-PROC UNKNOWN UNKNOWN
0 0 DIMENSION DUMMY) (REAL 8 0 0 0 REAL ()) 0 0 () (1 0 ASSUMED_SHAPE (
CONSTANT (INTEGER 4 0 0 0 INTEGER ()) 0 '1') ()) 0 () () () 0 0)
23 'u' '' '' 22 ((VARIABLE UNKNOWN-INTENT UNKNOWN-PROC UNKNOWN UNKNOWN 0
0 DIMENSION DUMMY) (REAL 8 0 0 0 REAL ()) 0 0 () (2 0 EXPLICIT (
CONSTANT (INTEGER 4 0 0 0 INTEGER ()) 0 '1') (CONSTANT (INTEGER 4 0 0 0
INTEGER ()) 0 '64') (CONSTANT (INTEGER 4 0 0 0 INTEGER ()) 0 '1') (
CONSTANT (INTEGER 4 0 0 0 INTEGER ()) 0 '121')) 0 () () () 0 0)
24 'tau' '' '' 22 ((VARIABLE UNKNOWN-INTENT UNKNOWN-PROC UNKNOWN UNKNOWN
0 0 DIMENSION DUMMY) (REAL 8 0 0 0 REAL ()) 0 0 () (3 0 ASSUMED_SHAPE (
CONSTANT (INTEGER 4 0 0 0 INTEGER ()) 0 '1') () (CONSTANT (INTEGER 4 0 0
0 INTEGER ()) 0 '1') () (CONSTANT (INTEGER 4 0 0 0 INTEGER ()) 0 '1') ())
0 () () () 0 0)
25 'time' '' '' 22 ((VARIABLE UNKNOWN-INTENT UNKNOWN-PROC UNKNOWN
UNKNOWN 0 0 DUMMY) (REAL 8 0 0 0 REAL ()) 0 0 () () 0 () () () 0 0)
31 'jm' '' '' 30 ((VARIABLE UNKNOWN-INTENT UNKNOWN-PROC UNKNOWN UNKNOWN
0 0 DUMMY) (INTEGER 4 0 0 0 INTEGER ()) 0 0 () () 0 () () () 0 0)
32 'c' '' '' 30 ((VARIABLE UNKNOWN-INTENT UNKNOWN-PROC UNKNOWN UNKNOWN 0
0 DIMENSION DUMMY) (REAL 8 0 0 0 REAL ()) 0 0 () (2 0 EXPLICIT (
CONSTANT (INTEGER 4 0 0 0 INTEGER ()) 0 '0') (CONSTANT (INTEGER 4 0 0 0
INTEGER ()) 0 '10') (CONSTANT (INTEGER 4 0 0 0 INTEGER ()) 0 '-10') (
CONSTANT (INTEGER 4 0 0 0 INTEGER ()) 0 '10')) 0 () () () 0 0)
33 'b' '' '' 30 ((VARIABLE UNKNOWN-INTENT UNKNOWN-PROC UNKNOWN UNKNOWN 0
0 DIMENSION DUMMY) (REAL 8 0 0 0 REAL ()) 0 0 () (2 0 EXPLICIT (
CONSTANT (INTEGER 4 0 0 0 INTEGER ()) 0 '0') (CONSTANT (INTEGER 4 0 0 0
INTEGER ()) 0 '10') (CONSTANT (INTEGER 4 0 0 0 INTEGER ()) 0 '-10') (
CONSTANT (INTEGER 4 0 0 0 INTEGER ()) 0 '10')) 0 () () () 0 0)
34 'd' '' '' 30 ((VARIABLE UNKNOWN-INTENT UNKNOWN-PROC UNKNOWN UNKNOWN 0
0 DIMENSION DUMMY) (REAL 8 0 0 0 REAL ()) 0 0 () (2 0 EXPLICIT (
CONSTANT (INTEGER 4 0 0 0 INTEGER ()) 0 '0') (CONSTANT (INTEGER 4 0 0 0
INTEGER ()) 0 '10') (CONSTANT (INTEGER 4 0 0 0 INTEGER ()) 0 '-10') (
CONSTANT (INTEGER 4 0 0 0 INTEGER ()) 0 '10')) 0 () () () 0 0)
39 'u' '' '' 38 ((VARIABLE IN UNKNOWN-PROC UNKNOWN UNKNOWN 0 0 DIMENSION
DUMMY) (REAL 8 0 0 0 REAL ()) 0 0 () (1 0 ASSUMED_SHAPE (CONSTANT (
INTEGER 4 0 0 0 INTEGER ()) 0 '1') ()) 0 () () () 0 0)
40 'dv' '' '' 38 ((VARIABLE IN UNKNOWN-PROC UNKNOWN UNKNOWN 0 0
DIMENSION DUMMY) (REAL 8 0 0 0 REAL ()) 0 0 () (2 0 ASSUMED_SHAPE (
CONSTANT (INTEGER 4 0 0 0 INTEGER ()) 0 '1') () (CONSTANT (INTEGER 4 0 0
0 INTEGER ()) 0 '1') ()) 0 () () () 0 0)
41 'da2p' '' '' 38 ((VARIABLE IN UNKNOWN-PROC UNKNOWN UNKNOWN 0 0
DIMENSION DUMMY) (REAL 8 0 0 0 REAL ()) 0 0 () (2 0 ASSUMED_SHAPE (
CONSTANT (INTEGER 4 0 0 0 INTEGER ()) 0 '1') () (CONSTANT (INTEGER 4 0 0
0 INTEGER ()) 0 '1') ()) 0 () () () 0 0)
42 'f' '' '' 38 ((VARIABLE OUT UNKNOWN-PROC UNKNOWN UNKNOWN 0 0
DIMENSION DUMMY) (REAL 8 0 0 0 REAL ()) 0 0 () (1 0 ASSUMED_SHAPE (
CONSTANT (INTEGER 4 0 0 0 INTEGER ()) 0 '1') ()) 0 () () () 0 0)
46 'u' '' '' 45 ((VARIABLE UNKNOWN-INTENT UNKNOWN-PROC UNKNOWN UNKNOWN 0
0 DIMENSION DUMMY) (REAL 8 0 0 0 REAL ()) 0 0 () (2 0 ASSUMED_SHAPE (
CONSTANT (INTEGER 4 0 0 0 INTEGER ()) 0 '1') () (CONSTANT (INTEGER 4 0 0
0 INTEGER ()) 0 '1') ()) 0 () () () 0 0)
47 'v' '' '' 45 ((VARIABLE UNKNOWN-INTENT UNKNOWN-PROC UNKNOWN UNKNOWN 0
0 DIMENSION DUMMY) (REAL 8 0 0 0 REAL ()) 0 0 () (2 0 ASSUMED_SHAPE (
CONSTANT (INTEGER 4 0 0 0 INTEGER ()) 0 '1') () (CONSTANT (INTEGER 4 0 0
0 INTEGER ()) 0 '1') ()) 0 () () () 0 0)
48 'f' '' '' 45 ((VARIABLE UNKNOWN-INTENT UNKNOWN-PROC UNKNOWN UNKNOWN 0
0 DIMENSION DUMMY) (REAL 8 0 0 0 REAL ()) 0 0 () (2 0 ASSUMED_SHAPE (
CONSTANT (INTEGER 4 0 0 0 INTEGER ()) 0 '1') () (CONSTANT (INTEGER 4 0 0
0 INTEGER ()) 0 '1') ()) 0 () () () 0 0)
53 'a' '' '' 52 ((VARIABLE UNKNOWN-INTENT UNKNOWN-PROC UNKNOWN UNKNOWN 0
0 DIMENSION DUMMY) (REAL 8 0 0 0 REAL ()) 0 0 () (2 0 EXPLICIT (
CONSTANT (INTEGER 4 0 0 0 INTEGER ()) 0 '0') (CONSTANT (INTEGER 4 0 0 0
INTEGER ()) 0 '10') (CONSTANT (INTEGER 4 0 0 0 INTEGER ()) 0 '-10') (
CONSTANT (INTEGER 4 0 0 0 INTEGER ()) 0 '10')) 0 () () () 0 0)
54 'l' '' '' 52 ((VARIABLE UNKNOWN-INTENT UNKNOWN-PROC UNKNOWN UNKNOWN 0
0 DUMMY) (INTEGER 4 0 0 0 INTEGER ()) 0 0 () () 0 () () () 0 0)
55 'm' '' '' 52 ((VARIABLE UNKNOWN-INTENT UNKNOWN-PROC UNKNOWN UNKNOWN 0
0 DUMMY) (INTEGER 4 0 0 0 INTEGER ()) 0 0 () () 0 () () () 0 0)
62 'u' '' '' 61 ((VARIABLE UNKNOWN-INTENT UNKNOWN-PROC UNKNOWN UNKNOWN 0
0 DIMENSION DUMMY) (REAL 8 0 0 0 REAL ()) 0 0 () (1 0 ASSUMED_SHAPE (
CONSTANT (INTEGER 4 0 0 0 INTEGER ()) 0 '0') ()) 0 () () () 0 0)
70 'ppn1' '' '' 69 ((VARIABLE UNKNOWN-INTENT UNKNOWN-PROC UNKNOWN
UNKNOWN 0 0 DUMMY) (REAL 8 0 0 0 REAL ()) 0 0 () () 0 () () () 0 0)
71 'ppal' '' '' 69 ((VARIABLE UNKNOWN-INTENT UNKNOWN-PROC UNKNOWN
UNKNOWN 0 0 DUMMY) (REAL 8 0 0 0 REAL ()) 0 0 () () 0 () () () 0 0)
72 'ppn2' '' '' 69 ((VARIABLE UNKNOWN-INTENT UNKNOWN-PROC UNKNOWN
UNKNOWN 0 0 DUMMY) (REAL 8 0 0 0 REAL ()) 0 0 () () 0 () () () 0 0)
73 'ppu0' '' '' 69 ((VARIABLE UNKNOWN-INTENT UNKNOWN-PROC UNKNOWN
UNKNOWN 0 0 DUMMY) (REAL 8 0 0 0 REAL ()) 0 0 () () 0 () () () 0 0)
74 'ppds' '' '' 69 ((VARIABLE UNKNOWN-INTENT UNKNOWN-PROC UNKNOWN
UNKNOWN 0 0 DUMMY) (REAL 8 0 0 0 REAL ()) 0 0 () () 0 () () () 0 0)
75 'ppde' '' '' 69 ((VARIABLE UNKNOWN-INTENT UNKNOWN-PROC UNKNOWN
UNKNOWN 0 0 DUMMY) (REAL 8 0 0 0 REAL ()) 0 0 () () 0 () () () 0 0)
76 'ppa' '' '' 69 ((VARIABLE UNKNOWN-INTENT UNKNOWN-PROC UNKNOWN UNKNOWN
0 0 DUMMY) (REAL 8 0 0 0 REAL ()) 0 0 () () 0 () () () 0 0)
77 'co2' '' '' 69 ((VARIABLE UNKNOWN-INTENT UNKNOWN-PROC UNKNOWN UNKNOWN
0 0 DUMMY) (REAL 8 0 0 0 REAL ()) 0 0 () () 0 () () () 0 0)
78 'ct2' '' '' 69 ((VARIABLE UNKNOWN-INTENT UNKNOWN-PROC UNKNOWN UNKNOWN
0 0 DUMMY) (REAL 8 0 0 0 REAL ()) 0 0 () () 0 () () () 0 0)
79 'pf' '' '' 69 ((VARIABLE UNKNOWN-INTENT UNKNOWN-PROC UNKNOWN UNKNOWN
0 0 DUMMY) (REAL 8 0 0 0 REAL ()) 0 0 () () 0 () () () 0 0)
82 'a' '' '' 81 ((VARIABLE UNKNOWN-INTENT UNKNOWN-PROC UNKNOWN UNKNOWN 0
0 DIMENSION DUMMY) (REAL 8 0 0 0 REAL ()) 0 0 () (2 0 EXPLICIT (
CONSTANT (INTEGER 4 0 0 0 INTEGER ()) 0 '0') (CONSTANT (INTEGER 4 0 0 0
INTEGER ()) 0 '10') (CONSTANT (INTEGER 4 0 0 0 INTEGER ()) 0 '-10') (
CONSTANT (INTEGER 4 0 0 0 INTEGER ()) 0 '10')) 0 () () () 0 0)
83 'l' '' '' 81 ((VARIABLE UNKNOWN-INTENT UNKNOWN-PROC UNKNOWN UNKNOWN 0
0 DUMMY) (INTEGER 4 0 0 0 INTEGER ()) 0 0 () () 0 () () () 0 0)
84 'm' '' '' 81 ((VARIABLE UNKNOWN-INTENT UNKNOWN-PROC UNKNOWN UNKNOWN 0
0 DUMMY) (INTEGER 4 0 0 0 INTEGER ()) 0 0 () () 0 () () () 0 0)
89 'jm' '' '' 88 ((VARIABLE UNKNOWN-INTENT UNKNOWN-PROC UNKNOWN UNKNOWN
0 0 DUMMY) (INTEGER 4 0 0 0 INTEGER ()) 0 0 () () 0 () () () 0 0)
90 'a' '' '' 88 ((VARIABLE UNKNOWN-INTENT UNKNOWN-PROC UNKNOWN UNKNOWN 0
0 DIMENSION DUMMY) (REAL 8 0 0 0 REAL ()) 0 0 () (2 0 EXPLICIT (
CONSTANT (INTEGER 4 0 0 0 INTEGER ()) 0 '0') (CONSTANT (INTEGER 4 0 0 0
INTEGER ()) 0 '10') (CONSTANT (INTEGER 4 0 0 0 INTEGER ()) 0 '-10') (
CONSTANT (INTEGER 4 0 0 0 INTEGER ()) 0 '10')) 0 () () () 0 0)
91 'd' '' '' 88 ((VARIABLE UNKNOWN-INTENT UNKNOWN-PROC UNKNOWN UNKNOWN 0
0 DIMENSION DUMMY) (REAL 8 0 0 0 REAL ()) 0 0 () (2 0 EXPLICIT (
CONSTANT (INTEGER 4 0 0 0 INTEGER ()) 0 '0') (CONSTANT (INTEGER 4 0 0 0
INTEGER ()) 0 '10') (CONSTANT (INTEGER 4 0 0 0 INTEGER ()) 0 '-10') (
CONSTANT (INTEGER 4 0 0 0 INTEGER ()) 0 '10')) 0 () () () 0 0)
92 'c' '' '' 88 ((VARIABLE UNKNOWN-INTENT UNKNOWN-PROC UNKNOWN UNKNOWN 0
0 DIMENSION DUMMY) (REAL 8 0 0 0 REAL ()) 0 0 () (2 0 EXPLICIT (
CONSTANT (INTEGER 4 0 0 0 INTEGER ()) 0 '0') (CONSTANT (INTEGER 4 0 0 0
INTEGER ()) 0 '10') (CONSTANT (INTEGER 4 0 0 0 INTEGER ()) 0 '-10') (
CONSTANT (INTEGER 4 0 0 0 INTEGER ()) 0 '10')) 0 () () () 0 0)
95 'pnn' '' '' 94 ((VARIABLE UNKNOWN-INTENT UNKNOWN-PROC UNKNOWN UNKNOWN
0 0 DUMMY) (REAL 8 0 0 0 REAL ()) 0 0 () () 0 () () () 0 0)
96 'ppal' '' '' 94 ((VARIABLE UNKNOWN-INTENT UNKNOWN-PROC UNKNOWN
UNKNOWN 0 0 DUMMY) (REAL 8 0 0 0 REAL ()) 0 0 () () 0 () () () 0 0)
97 'pnn1' '' '' 94 ((VARIABLE UNKNOWN-INTENT UNKNOWN-PROC UNKNOWN
UNKNOWN 0 0 DUMMY) (REAL 8 0 0 0 REAL ()) 0 0 () () 0 () () () 0 0)
98 'ppds' '' '' 94 ((VARIABLE UNKNOWN-INTENT UNKNOWN-PROC UNKNOWN
UNKNOWN 0 0 DUMMY) (REAL 8 0 0 0 REAL ()) 0 0 () () 0 () () () 0 0)
99 'pct' '' '' 94 ((VARIABLE UNKNOWN-INTENT UNKNOWN-PROC UNKNOWN UNKNOWN
0 0 DUMMY) (REAL 8 0 0 0 REAL ()) 0 0 () () 0 () () () 0 0)
100 'al' '' '' 94 ((VARIABLE UNKNOWN-INTENT UNKNOWN-PROC UNKNOWN UNKNOWN
0 0 DUMMY) (REAL 8 0 0 0 REAL ()) 0 0 () () 0 () () () 0 0)
101 'et' '' '' 94 ((VARIABLE UNKNOWN-INTENT UNKNOWN-PROC UNKNOWN UNKNOWN
0 0 DUMMY) (REAL 8 0 0 0 REAL ()) 0 0 () () 0 () () () 0 0)
102 'p2' '' '' 94 ((VARIABLE UNKNOWN-INTENT UNKNOWN-PROC UNKNOWN UNKNOWN
0 0 DUMMY) (REAL 8 0 0 0 REAL ()) 0 0 () () 0 () () () 0 0)
103 'p3' '' '' 94 ((VARIABLE UNKNOWN-INTENT UNKNOWN-PROC UNKNOWN UNKNOWN
0 0 DUMMY) (REAL 8 0 0 0 REAL ()) 0 0 () () 0 () () () 0 0)
104 'gg' '' '' 94 ((VARIABLE UNKNOWN-INTENT UNKNOWN-PROC UNKNOWN UNKNOWN
0 0 DUMMY) (REAL 8 0 0 0 REAL ()) 0 0 () () 0 () () () 0 0)
108 'a00' '' '' 107 ((VARIABLE UNKNOWN-INTENT UNKNOWN-PROC UNKNOWN
UNKNOWN 0 0 DUMMY) (REAL 8 0 0 0 REAL ()) 0 0 () () 0 () () () 0 0)
109 'tm' '' '' 107 ((VARIABLE UNKNOWN-INTENT UNKNOWN-PROC UNKNOWN
UNKNOWN 0 0 DIMENSION DUMMY) (REAL 8 0 0 0 REAL ()) 0 0 () (1 0
ASSUMED_SHAPE (CONSTANT (INTEGER 4 0 0 0 INTEGER ()) 0 '1') ()) 0 () ()
() 0 0)
110 'sm' '' '' 107 ((VARIABLE UNKNOWN-INTENT UNKNOWN-PROC UNKNOWN
UNKNOWN 0 0 DIMENSION DUMMY) (REAL 8 0 0 0 REAL ()) 0 0 () (2 0
ASSUMED_SHAPE (CONSTANT (INTEGER 4 0 0 0 INTEGER ()) 0 '1') () (
CONSTANT (INTEGER 4 0 0 0 INTEGER ()) 0 '1') ()) 0 () () () 0 0)
111 'fm' '' '' 107 ((VARIABLE UNKNOWN-INTENT UNKNOWN-PROC UNKNOWN
UNKNOWN 0 0 DIMENSION DUMMY) (REAL 8 0 0 0 REAL ()) 0 0 () (1 0
ASSUMED_SHAPE (CONSTANT (INTEGER 4 0 0 0 INTEGER ()) 0 '1') ()) 0 () ()
() 0 0)
112 'dv' '' '' 107 ((VARIABLE UNKNOWN-INTENT UNKNOWN-PROC UNKNOWN
UNKNOWN 0 0 DIMENSION DUMMY) (REAL 8 0 0 0 REAL ()) 0 0 () (2 0 EXPLICIT
(CONSTANT (INTEGER 4 0 0 0 INTEGER ()) 0 '1') (CONSTANT (INTEGER 4 0 0 0
INTEGER ()) 0 '3') (CONSTANT (INTEGER 4 0 0 0 INTEGER ()) 0 '1') (
CONSTANT (INTEGER 4 0 0 0 INTEGER ()) 0 '3')) 0 () () () 0 0)
113 'tau' '' '' 107 ((VARIABLE UNKNOWN-INTENT UNKNOWN-PROC UNKNOWN
UNKNOWN 0 0 DIMENSION DUMMY) (REAL 8 0 0 0 REAL ()) 0 0 () (2 0
ASSUMED_SHAPE (CONSTANT (INTEGER 4 0 0 0 INTEGER ()) 0 '1') () (
CONSTANT (INTEGER 4 0 0 0 INTEGER ()) 0 '1') ()) 0 () () () 0 0)
116 'dd' '' '' 115 ((VARIABLE UNKNOWN-INTENT UNKNOWN-PROC UNKNOWN
UNKNOWN 0 0 DIMENSION DUMMY) (REAL 8 0 0 0 REAL ()) 0 0 () (2 0
ASSUMED_SHAPE (CONSTANT (INTEGER 4 0 0 0 INTEGER ()) 0 '1') () (
CONSTANT (INTEGER 4 0 0 0 INTEGER ()) 0 '1') ()) 0 () () () 0 0)
117 'tau' '' '' 115 ((VARIABLE UNKNOWN-INTENT UNKNOWN-PROC UNKNOWN
UNKNOWN 0 0 DIMENSION DUMMY) (REAL 8 0 0 0 REAL ()) 0 0 () (2 0
ASSUMED_SHAPE (CONSTANT (INTEGER 4 0 0 0 INTEGER ()) 0 '1') () (
CONSTANT (INTEGER 4 0 0 0 INTEGER ()) 0 '1') ()) 0 () () () 0 0)
120 'u' '' '' 119 ((VARIABLE IN UNKNOWN-PROC UNKNOWN UNKNOWN 0 0
DIMENSION DUMMY) (REAL 8 0 0 0 REAL ()) 0 0 () (1 0 ASSUMED_SHAPE (
CONSTANT (INTEGER 4 0 0 0 INTEGER ()) 0 '1') ()) 0 () () () 0 0)
121 't' '' '' 119 ((VARIABLE UNKNOWN-INTENT UNKNOWN-PROC UNKNOWN UNKNOWN
0 0 DUMMY) (REAL 8 0 0 0 REAL ()) 0 0 () () 0 () () () 0 0)
122 'f' '' '' 119 ((VARIABLE OUT UNKNOWN-PROC UNKNOWN UNKNOWN 0 0
DIMENSION DUMMY) (REAL 8 0 0 0 REAL ()) 0 0 () (1 0 ASSUMED_SHAPE (
CONSTANT (INTEGER 4 0 0 0 INTEGER ()) 0 '1') ()) 0 () () () 0 0)
125 'u' '' '' 124 ((VARIABLE UNKNOWN-INTENT UNKNOWN-PROC UNKNOWN UNKNOWN
0 0 DIMENSION DUMMY) (REAL 8 0 0 0 REAL ()) 0 0 () (2 0 EXPLICIT (
CONSTANT (INTEGER 4 0 0 0 INTEGER ()) 0 '1') (CONSTANT (INTEGER 4 0 0 0
INTEGER ()) 0 '64') (CONSTANT (INTEGER 4 0 0 0 INTEGER ()) 0 '1') (
CONSTANT (INTEGER 4 0 0 0 INTEGER ()) 0 '121')) 0 () () () 0 0)
126 'tau' '' '' 124 ((VARIABLE UNKNOWN-INTENT UNKNOWN-PROC UNKNOWN
UNKNOWN 0 0 DIMENSION DUMMY) (REAL 8 0 0 0 REAL ()) 0 0 () (3 0
ASSUMED_SHAPE (CONSTANT (INTEGER 4 0 0 0 INTEGER ()) 0 '1') () (
CONSTANT (INTEGER 4 0 0 0 INTEGER ()) 0 '1') () (CONSTANT (INTEGER 4 0 0
0 INTEGER ()) 0 '1') ()) 0 () () () 0 0)
127 'time' '' '' 124 ((VARIABLE UNKNOWN-INTENT UNKNOWN-PROC UNKNOWN
UNKNOWN 0 0 DUMMY) (REAL 8 0 0 0 REAL ()) 0 0 () () 0 () () () 0 0)
)

('__convert_i4_r8' 0 2 'acp' 0 3 'beta' 0 4 'd1x' 0 5 'd1y' 0 6 'd2u' 0
7 'd2x' 0 8 'd2y' 0 9 'dagp' 0 10 'dble' 0 11 'dfdt' 0 12 'dtaum' 0 21
'dvds' 0 26 'er' 0 27 'f_para' 0 28 'ftg' 0 29 'fu3' 0 35 'fv3a' 0 36
'fv_11' 0 37 'fva' 0 43 'fvalue_1' 0 44 'gama' 0 49 'hy' 0 50 'im' 0 51
'kind' 0 56 'lcp_2d' 0 57 'lmax' 0 58 'lp' 0 59 'moments' 0 60 'n' 0 63
'n3' 0 64 'nv' 0 65 'ny' 0 66 'pd' 0 67 'pvalues' 0 68 're' 0 80
'read_3js' 0 85 'reshape' 0 86 'rftrg' 0 87 'setanpe' 0 93 'sigma' 0 105
'single_taum' 0 106 'single_tauv' 0 114 'smoluchowski' 0 118 'taum_value'
0 123 'u3' 0 128 'ubv' 0 129 'v3' 0 130 'ys' 0 131)
