%!PS-Adobe-3.0 EPSF-3.0
%%Title: ./t3.eps
%%Creator: matplotlib version 1.4.3, http://matplotlib.org/
%%CreationDate: Wed Jan 20 08:27:55 2016
%%Orientation: portrait
%%BoundingBox: 18 180 594 612
%%EndComments
%%BeginProlog
/mpldict 8 dict def
mpldict begin
/m { moveto } bind def
/l { lineto } bind def
/r { rlineto } bind def
/c { curveto } bind def
/cl { closepath } bind def
/box {
m
1 index 0 r
0 exch r
neg 0 r
cl
} bind def
/clipbox {
box
clip
newpath
} bind def
%!PS-Adobe-3.0 Resource-Font
%%Title: DejaVu Sans
%%Copyright: Copyright (c) 2003 by Bitstream, Inc. All Rights Reserved. Copyright (c) 2006 by Tavmjong Bah. All Rights Reserved. DejaVu changes are in public domain 
%%Creator: Converted from TrueType to type 3 by PPR
25 dict begin
/_d{bind def}bind def
/_m{moveto}_d
/_l{lineto}_d
/_cl{closepath eofill}_d
/_c{curveto}_d
/_sc{7 -1 roll{setcachedevice}{pop pop pop pop pop pop}ifelse}_d
/_e{exec}_d
/FontName /DejaVuSans def
/PaintType 0 def
/FontMatrix[.001 0 0 .001 0 0]def
/FontBBox[-1021 -415 1681 1167]def
/FontType 3 def
/Encoding [ /space /comma /period /zero /one /two /three /five /T /Y /e /i /l /m /o /p /t /y ] def
/FontInfo 10 dict dup begin
/FamilyName (DejaVu Sans) def
/FullName (DejaVu Sans) def
/Notice (Copyright (c) 2003 by Bitstream, Inc. All Rights Reserved. Copyright (c) 2006 by Tavmjong Bah. All Rights Reserved. DejaVu changes are in public domain ) def
/Weight (Book) def
/Version (Version 2.34) def
/ItalicAngle 0.0 def
/isFixedPitch false def
/UnderlinePosition -130 def
/UnderlineThickness 90 def
end readonly def
/CharStrings 18 dict dup begin
/space{318 0 0 0 0 0 _sc
}_d
/comma{318 0 77 -115 220 124 _sc
117 124 _m
220 124 _l
220 40 _l
140 -115 _l
77 -115 _l
117 40 _l
117 124 _l
_cl}_d
/period{318 0 107 0 210 124 _sc
107 124 _m
210 124 _l
210 0 _l
107 0 _l
107 124 _l
_cl}_d
/zero{636 0 66 -13 570 742 _sc
318 664 _m
267 664 229 639 203 589 _c
177 539 165 464 165 364 _c
165 264 177 189 203 139 _c
229 89 267 64 318 64 _c
369 64 407 89 433 139 _c
458 189 471 264 471 364 _c
471 464 458 539 433 589 _c
407 639 369 664 318 664 _c
318 742 _m
399 742 461 709 505 645 _c
548 580 570 486 570 364 _c
570 241 548 147 505 83 _c
461 19 399 -13 318 -13 _c
236 -13 173 19 130 83 _c
87 147 66 241 66 364 _c
66 486 87 580 130 645 _c
173 709 236 742 318 742 _c
_cl}_d
/one{636 0 110 0 544 729 _sc
124 83 _m
285 83 _l
285 639 _l
110 604 _l
110 694 _l
284 729 _l
383 729 _l
383 83 _l
544 83 _l
544 0 _l
124 0 _l
124 83 _l
_cl}_d
/two{{636 0 73 0 536 742 _sc
192 83 _m
536 83 _l
536 0 _l
73 0 _l
73 83 _l
110 121 161 173 226 239 _c
290 304 331 346 348 365 _c
380 400 402 430 414 455 _c
426 479 433 504 433 528 _c
433 566 419 598 392 622 _c
365 646 330 659 286 659 _c
255 659 222 653 188 643 _c
154 632 117 616 78 594 _c
78 694 _l
118 710 155 722 189 730 _c
223 738 255 742 284 742 _c
}_e{359 742 419 723 464 685 _c
509 647 532 597 532 534 _c
532 504 526 475 515 449 _c
504 422 484 390 454 354 _c
446 344 420 317 376 272 _c
332 227 271 164 192 83 _c
_cl}_e}_d
/three{{636 0 76 -13 556 742 _sc
406 393 _m
453 383 490 362 516 330 _c
542 298 556 258 556 212 _c
556 140 531 84 482 45 _c
432 6 362 -13 271 -13 _c
240 -13 208 -10 176 -4 _c
144 1 110 10 76 22 _c
76 117 _l
103 101 133 89 166 81 _c
198 73 232 69 268 69 _c
330 69 377 81 409 105 _c
441 129 458 165 458 212 _c
458 254 443 288 413 312 _c
383 336 341 349 287 349 _c
}_e{202 349 _l
202 430 _l
291 430 _l
339 430 376 439 402 459 _c
428 478 441 506 441 543 _c
441 580 427 609 401 629 _c
374 649 336 659 287 659 _c
260 659 231 656 200 650 _c
169 644 135 635 98 623 _c
98 711 _l
135 721 170 729 203 734 _c
235 739 266 742 296 742 _c
370 742 429 725 473 691 _c
517 657 539 611 539 553 _c
539 513 527 479 504 451 _c
481 423 448 403 406 393 _c
_cl}_e}_d
/five{{636 0 77 -13 549 729 _sc
108 729 _m
495 729 _l
495 646 _l
198 646 _l
198 467 _l
212 472 227 476 241 478 _c
255 480 270 482 284 482 _c
365 482 429 459 477 415 _c
525 370 549 310 549 234 _c
549 155 524 94 475 51 _c
426 8 357 -13 269 -13 _c
238 -13 207 -10 175 -6 _c
143 -1 111 6 77 17 _c
77 116 _l
106 100 136 88 168 80 _c
199 72 232 69 267 69 _c
}_e{323 69 368 83 401 113 _c
433 143 450 183 450 234 _c
450 284 433 324 401 354 _c
368 384 323 399 267 399 _c
241 399 214 396 188 390 _c
162 384 135 375 108 363 _c
108 729 _l
_cl}_e}_d
/T{611 0 -2 0 614 729 _sc
-2 729 _m
614 729 _l
614 646 _l
355 646 _l
355 0 _l
256 0 _l
256 646 _l
-2 646 _l
-2 729 _l
_cl}_d
/Y{611 0 -1 0 613 729 _sc
-1 729 _m
104 729 _l
306 429 _l
507 729 _l
613 729 _l
355 347 _l
355 0 _l
256 0 _l
256 347 _l
-1 729 _l
_cl}_d
/e{{615 0 55 -13 562 560 _sc
562 296 _m
562 252 _l
149 252 _l
153 190 171 142 205 110 _c
238 78 284 62 344 62 _c
378 62 412 66 444 74 _c
476 82 509 95 541 113 _c
541 28 _l
509 14 476 3 442 -3 _c
408 -9 373 -13 339 -13 _c
251 -13 182 12 131 62 _c
80 112 55 181 55 268 _c
55 357 79 428 127 481 _c
175 533 241 560 323 560 _c
397 560 455 536 498 489 _c
}_e{540 441 562 377 562 296 _c
472 322 _m
471 371 457 410 431 440 _c
404 469 368 484 324 484 _c
274 484 234 469 204 441 _c
174 413 156 373 152 322 _c
472 322 _l
_cl}_e}_d
/i{278 0 94 0 184 760 _sc
94 547 _m
184 547 _l
184 0 _l
94 0 _l
94 547 _l
94 760 _m
184 760 _l
184 646 _l
94 646 _l
94 760 _l
_cl}_d
/l{278 0 94 0 184 760 _sc
94 760 _m
184 760 _l
184 0 _l
94 0 _l
94 760 _l
_cl}_d
/m{{974 0 91 0 889 560 _sc
520 442 _m
542 482 569 511 600 531 _c
631 550 668 560 711 560 _c
767 560 811 540 842 500 _c
873 460 889 403 889 330 _c
889 0 _l
799 0 _l
799 327 _l
799 379 789 418 771 444 _c
752 469 724 482 686 482 _c
639 482 602 466 575 435 _c
548 404 535 362 535 309 _c
535 0 _l
445 0 _l
445 327 _l
445 379 435 418 417 444 _c
398 469 369 482 331 482 _c
}_e{285 482 248 466 221 435 _c
194 404 181 362 181 309 _c
181 0 _l
91 0 _l
91 547 _l
181 547 _l
181 462 _l
201 495 226 520 255 536 _c
283 552 317 560 357 560 _c
397 560 430 550 458 530 _c
486 510 506 480 520 442 _c
_cl}_e}_d
/o{612 0 55 -13 557 560 _sc
306 484 _m
258 484 220 465 192 427 _c
164 389 150 338 150 273 _c
150 207 163 156 191 118 _c
219 80 257 62 306 62 _c
354 62 392 80 420 118 _c
448 156 462 207 462 273 _c
462 337 448 389 420 427 _c
392 465 354 484 306 484 _c
306 560 _m
384 560 445 534 490 484 _c
534 433 557 363 557 273 _c
557 183 534 113 490 63 _c
445 12 384 -13 306 -13 _c
227 -13 165 12 121 63 _c
77 113 55 183 55 273 _c
55 363 77 433 121 484 _c
165 534 227 560 306 560 _c
_cl}_d
/p{{635 0 91 -207 580 560 _sc
181 82 _m
181 -207 _l
91 -207 _l
91 547 _l
181 547 _l
181 464 _l
199 496 223 520 252 536 _c
281 552 316 560 356 560 _c
422 560 476 533 518 481 _c
559 428 580 359 580 273 _c
580 187 559 117 518 65 _c
476 13 422 -13 356 -13 _c
316 -13 281 -5 252 10 _c
223 25 199 49 181 82 _c
487 273 _m
487 339 473 390 446 428 _c
418 466 381 485 334 485 _c
}_e{286 485 249 466 222 428 _c
194 390 181 339 181 273 _c
181 207 194 155 222 117 _c
249 79 286 61 334 61 _c
381 61 418 79 446 117 _c
473 155 487 207 487 273 _c
_cl}_e}_d
/t{392 0 27 0 368 702 _sc
183 702 _m
183 547 _l
368 547 _l
368 477 _l
183 477 _l
183 180 _l
183 135 189 106 201 94 _c
213 81 238 75 276 75 _c
368 75 _l
368 0 _l
276 0 _l
206 0 158 13 132 39 _c
106 65 93 112 93 180 _c
93 477 _l
27 477 _l
27 547 _l
93 547 _l
93 702 _l
183 702 _l
_cl}_d
/y{592 0 30 -207 562 547 _sc
322 -50 _m
296 -114 271 -157 247 -177 _c
223 -197 191 -207 151 -207 _c
79 -207 _l
79 -132 _l
132 -132 _l
156 -132 175 -126 189 -114 _c
203 -102 218 -75 235 -31 _c
251 9 _l
30 547 _l
125 547 _l
296 119 _l
467 547 _l
562 547 _l
322 -50 _l
_cl}_d
end readonly def

/BuildGlyph
 {exch begin
 CharStrings exch
 2 copy known not{pop /.notdef}if
 true 3 1 roll get exec
 end}_d

/BuildChar {
 1 index /Encoding get exch get
 1 index /BuildGlyph get exec
}_d

FontName currentdict end definefont pop
end
%%EndProlog
mpldict begin
18 180 translate
576 432 0 0 clipbox
gsave
0 0 m
576 0 l
576 432 l
0 432 l
cl
1.000 setgray
fill
grestore
gsave
72 43.2 m
518.4 43.2 l
518.4 388.8 l
72 388.8 l
cl
1.000 setgray
fill
grestore
gsave
446.4 345.6 72 43.2 clipbox
81.0545 60.5831 m
88.4613 60.5831 l
86.7873 63.9311 l
103.527 58.9091 l
86.7873 53.8871 l
88.4613 57.2351 l
81.0545 57.2351 l
81.0545 60.5831 l
1.000 0.000 0.000 setrgbcolor
fill
grestore
gsave
446.4 345.6 72 43.2 clipbox
283.964 60.5831 m
291.37 60.5831 l
289.696 63.9311 l
306.436 58.9091 l
289.696 53.8871 l
291.37 57.2351 l
283.964 57.2351 l
283.964 60.5831 l
1.000 0.000 0.000 setrgbcolor
fill
grestore
gsave
446.4 345.6 72 43.2 clipbox
486.873 60.5831 m
494.28 60.5831 l
492.606 63.9311 l
509.346 58.9091 l
492.606 53.8871 l
494.28 57.2351 l
486.873 57.2351 l
486.873 60.5831 l
1.000 0.000 0.000 setrgbcolor
fill
grestore
gsave
446.4 345.6 72 43.2 clipbox
81.0545 165.31 m
88.4613 165.31 l
86.7873 168.658 l
103.527 163.636 l
86.7873 158.614 l
88.4613 161.962 l
81.0545 161.962 l
81.0545 165.31 l
1.000 0.000 0.000 setrgbcolor
fill
grestore
gsave
446.4 345.6 72 43.2 clipbox
283.964 165.31 m
291.37 165.31 l
289.696 168.658 l
306.436 163.636 l
289.696 158.614 l
291.37 161.962 l
283.964 161.962 l
283.964 165.31 l
1.000 0.000 0.000 setrgbcolor
fill
grestore
gsave
446.4 345.6 72 43.2 clipbox
485.689 153.584 m
497.509 165.403 l
493.957 166.587 l
509.346 174.873 l
501.06 159.485 l
499.876 163.036 l
488.056 151.216 l
485.689 153.584 l
1.000 0.000 0.000 setrgbcolor
fill
grestore
gsave
446.4 345.6 72 43.2 clipbox
81.0545 270.038 m
88.4613 270.038 l
86.7873 273.386 l
103.527 268.364 l
86.7873 263.342 l
88.4613 266.69 l
81.0545 266.69 l
81.0545 270.038 l
1.000 0.000 0.000 setrgbcolor
fill
grestore
gsave
446.4 345.6 72 43.2 clipbox
282.78 258.311 m
294.599 270.13 l
291.048 271.314 l
306.436 279.6 l
298.151 264.212 l
296.967 267.763 l
285.147 255.944 l
282.78 258.311 l
1.000 0.000 0.000 setrgbcolor
fill
grestore
gsave
446.4 345.6 72 43.2 clipbox
486.873 270.038 m
494.28 270.038 l
492.606 273.386 l
509.346 268.364 l
492.606 263.342 l
494.28 266.69 l
486.873 266.69 l
486.873 270.038 l
1.000 0.000 0.000 setrgbcolor
fill
grestore
gsave
446.4 345.6 72 43.2 clipbox
79.8708 363.038 m
91.6904 374.858 l
88.1393 376.041 l
103.527 384.327 l
95.2415 368.939 l
94.0578 372.49 l
82.2382 360.671 l
79.8708 363.038 l
1.000 0.000 0.000 setrgbcolor
fill
grestore
gsave
446.4 345.6 72 43.2 clipbox
283.964 374.765 m
291.37 374.765 l
289.696 378.113 l
306.436 373.091 l
289.696 368.069 l
291.37 371.417 l
283.964 371.417 l
283.964 374.765 l
1.000 0.000 0.000 setrgbcolor
fill
grestore
gsave
446.4 345.6 72 43.2 clipbox
486.873 374.765 m
494.28 374.765 l
492.606 378.113 l
509.346 373.091 l
492.606 368.069 l
494.28 371.417 l
486.873 371.417 l
486.873 374.765 l
1.000 0.000 0.000 setrgbcolor
fill
grestore
1.000 setlinewidth
0 setlinejoin
2 setlinecap
[] 0 setdash
0.000 setgray
gsave
72 388.8 m
518.4 388.8 l
stroke
grestore
gsave
518.4 43.2 m
518.4 388.8 l
stroke
grestore
gsave
72 43.2 m
518.4 43.2 l
stroke
grestore
gsave
72 43.2 m
72 388.8 l
stroke
grestore
0.500 setlinewidth
1 setlinejoin
0 setlinecap
gsave
/o {
gsave
newpath
translate
0.5 setlinewidth
1 setlinejoin
0 setlinecap
0 0 m
0 4 l
gsave
0.000 setgray
fill
grestore
stroke
grestore
} bind def
92.2909 43.2 o
grestore
gsave
/o {
gsave
newpath
translate
0.5 setlinewidth
1 setlinejoin
0 setlinecap
0 0 m
0 -4 l
gsave
0.000 setgray
fill
grestore
stroke
grestore
} bind def
92.2909 388.8 o
grestore
/DejaVuSans findfont
12.000 scalefont
setfont
gsave
83.540909 30.075000 translate
0.000000 rotate
0.000000 0.000000 m /zero glyphshow
7.634766 0.000000 m /period glyphshow
11.449219 0.000000 m /zero glyphshow
grestore
gsave
/o {
gsave
newpath
translate
0.5 setlinewidth
1 setlinejoin
0 setlinecap
0 0 m
0 4 l
gsave
0.000 setgray
fill
grestore
stroke
grestore
} bind def
193.745 43.2 o
grestore
gsave
/o {
gsave
newpath
translate
0.5 setlinewidth
1 setlinejoin
0 setlinecap
0 0 m
0 -4 l
gsave
0.000 setgray
fill
grestore
stroke
grestore
} bind def
193.745 388.8 o
grestore
gsave
185.120455 30.075000 translate
0.000000 rotate
0.000000 0.000000 m /zero glyphshow
7.634766 0.000000 m /period glyphshow
11.449219 0.000000 m /five glyphshow
grestore
gsave
/o {
gsave
newpath
translate
0.5 setlinewidth
1 setlinejoin
0 setlinecap
0 0 m
0 4 l
gsave
0.000 setgray
fill
grestore
stroke
grestore
} bind def
295.2 43.2 o
grestore
gsave
/o {
gsave
newpath
translate
0.5 setlinewidth
1 setlinejoin
0 setlinecap
0 0 m
0 -4 l
gsave
0.000 setgray
fill
grestore
stroke
grestore
} bind def
295.2 388.8 o
grestore
gsave
286.707812 30.075000 translate
0.000000 rotate
0.000000 0.000000 m /one glyphshow
7.634766 0.000000 m /period glyphshow
11.449219 0.000000 m /zero glyphshow
grestore
gsave
/o {
gsave
newpath
translate
0.5 setlinewidth
1 setlinejoin
0 setlinecap
0 0 m
0 4 l
gsave
0.000 setgray
fill
grestore
stroke
grestore
} bind def
396.655 43.2 o
grestore
gsave
/o {
gsave
newpath
translate
0.5 setlinewidth
1 setlinejoin
0 setlinecap
0 0 m
0 -4 l
gsave
0.000 setgray
fill
grestore
stroke
grestore
} bind def
396.655 388.8 o
grestore
gsave
388.287358 30.075000 translate
0.000000 rotate
0.000000 0.000000 m /one glyphshow
7.634766 0.000000 m /period glyphshow
11.449219 0.000000 m /five glyphshow
grestore
gsave
/o {
gsave
newpath
translate
0.5 setlinewidth
1 setlinejoin
0 setlinecap
0 0 m
0 4 l
gsave
0.000 setgray
fill
grestore
stroke
grestore
} bind def
498.109 43.2 o
grestore
gsave
/o {
gsave
newpath
translate
0.5 setlinewidth
1 setlinejoin
0 setlinecap
0 0 m
0 -4 l
gsave
0.000 setgray
fill
grestore
stroke
grestore
} bind def
498.109 388.8 o
grestore
gsave
489.398153 30.075000 translate
0.000000 rotate
0.000000 0.000000 m /two glyphshow
7.634766 0.000000 m /period glyphshow
11.449219 0.000000 m /zero glyphshow
grestore
gsave
280.825000 13.450000 translate
0.000000 rotate
0.000000 0.000000 m /T glyphshow
6.955078 0.000000 m /i glyphshow
10.289062 0.000000 m /m glyphshow
21.978516 0.000000 m /e glyphshow
grestore
gsave
/o {
gsave
newpath
translate
0.5 setlinewidth
1 setlinejoin
0 setlinecap
0 0 m
4 0 l
gsave
0.000 setgray
fill
grestore
stroke
grestore
} bind def
72 58.9091 o
grestore
gsave
/o {
gsave
newpath
translate
0.5 setlinewidth
1 setlinejoin
0 setlinecap
0 0 m
-4 0 l
gsave
0.000 setgray
fill
grestore
stroke
grestore
} bind def
518.4 58.9091 o
grestore
gsave
50.500000 55.596591 translate
0.000000 rotate
0.000000 0.000000 m /zero glyphshow
7.634766 0.000000 m /period glyphshow
11.449219 0.000000 m /zero glyphshow
grestore
gsave
/o {
gsave
newpath
translate
0.5 setlinewidth
1 setlinejoin
0 setlinecap
0 0 m
4 0 l
gsave
0.000 setgray
fill
grestore
stroke
grestore
} bind def
72 111.273 o
grestore
gsave
/o {
gsave
newpath
translate
0.5 setlinewidth
1 setlinejoin
0 setlinecap
0 0 m
-4 0 l
gsave
0.000 setgray
fill
grestore
stroke
grestore
} bind def
518.4 111.273 o
grestore
gsave
50.750000 107.960227 translate
0.000000 rotate
0.000000 0.000000 m /zero glyphshow
7.634766 0.000000 m /period glyphshow
11.449219 0.000000 m /five glyphshow
grestore
gsave
/o {
gsave
newpath
translate
0.5 setlinewidth
1 setlinejoin
0 setlinecap
0 0 m
4 0 l
gsave
0.000 setgray
fill
grestore
stroke
grestore
} bind def
72 163.636 o
grestore
gsave
/o {
gsave
newpath
translate
0.5 setlinewidth
1 setlinejoin
0 setlinecap
0 0 m
-4 0 l
gsave
0.000 setgray
fill
grestore
stroke
grestore
} bind def
518.4 163.636 o
grestore
gsave
51.015625 160.323864 translate
0.000000 rotate
0.000000 0.000000 m /one glyphshow
7.634766 0.000000 m /period glyphshow
11.449219 0.000000 m /zero glyphshow
grestore
gsave
/o {
gsave
newpath
translate
0.5 setlinewidth
1 setlinejoin
0 setlinecap
0 0 m
4 0 l
gsave
0.000 setgray
fill
grestore
stroke
grestore
} bind def
72 216 o
grestore
gsave
/o {
gsave
newpath
translate
0.5 setlinewidth
1 setlinejoin
0 setlinecap
0 0 m
-4 0 l
gsave
0.000 setgray
fill
grestore
stroke
grestore
} bind def
518.4 216 o
grestore
gsave
51.265625 212.687500 translate
0.000000 rotate
0.000000 0.000000 m /one glyphshow
7.634766 0.000000 m /period glyphshow
11.449219 0.000000 m /five glyphshow
grestore
gsave
/o {
gsave
newpath
translate
0.5 setlinewidth
1 setlinejoin
0 setlinecap
0 0 m
4 0 l
gsave
0.000 setgray
fill
grestore
stroke
grestore
} bind def
72 268.364 o
grestore
gsave
/o {
gsave
newpath
translate
0.5 setlinewidth
1 setlinejoin
0 setlinecap
0 0 m
-4 0 l
gsave
0.000 setgray
fill
grestore
stroke
grestore
} bind def
518.4 268.364 o
grestore
gsave
50.578125 265.051136 translate
0.000000 rotate
0.000000 0.000000 m /two glyphshow
7.634766 0.000000 m /period glyphshow
11.449219 0.000000 m /zero glyphshow
grestore
gsave
/o {
gsave
newpath
translate
0.5 setlinewidth
1 setlinejoin
0 setlinecap
0 0 m
4 0 l
gsave
0.000 setgray
fill
grestore
stroke
grestore
} bind def
72 320.727 o
grestore
gsave
/o {
gsave
newpath
translate
0.5 setlinewidth
1 setlinejoin
0 setlinecap
0 0 m
-4 0 l
gsave
0.000 setgray
fill
grestore
stroke
grestore
} bind def
518.4 320.727 o
grestore
gsave
50.828125 317.414773 translate
0.000000 rotate
0.000000 0.000000 m /two glyphshow
7.634766 0.000000 m /period glyphshow
11.449219 0.000000 m /five glyphshow
grestore
gsave
/o {
gsave
newpath
translate
0.5 setlinewidth
1 setlinejoin
0 setlinecap
0 0 m
4 0 l
gsave
0.000 setgray
fill
grestore
stroke
grestore
} bind def
72 373.091 o
grestore
gsave
/o {
gsave
newpath
translate
0.5 setlinewidth
1 setlinejoin
0 setlinecap
0 0 m
-4 0 l
gsave
0.000 setgray
fill
grestore
stroke
grestore
} bind def
518.4 373.091 o
grestore
gsave
50.625000 369.778409 translate
0.000000 rotate
0.000000 0.000000 m /three glyphshow
7.634766 0.000000 m /period glyphshow
11.449219 0.000000 m /zero glyphshow
grestore
gsave
43.000000 212.304688 translate
90.000000 rotate
0.000000 0.000000 m /Y glyphshow
grestore
/DejaVuSans findfont
14.400 scalefont
setfont
gsave
269.934375 393.800000 translate
0.000000 rotate
0.000000 0.000000 m /t glyphshow
5.636292 0.000000 m /comma glyphshow
10.205688 0.000000 m /y glyphshow
18.712769 0.000000 m /space glyphshow
23.282166 0.000000 m /p glyphshow
32.406921 0.000000 m /l glyphshow
36.400757 0.000000 m /o glyphshow
45.195618 0.000000 m /t glyphshow
grestore

end
showpage
